module invent.kde.org/aspotashev/goppopotamus

go 1.12

require (
	github.com/davecgh/go-spew v1.1.1 // indirect
	github.com/pmezard/go-difflib v1.0.0 // indirect
	github.com/stretchr/testify v1.2.2
)
